astroid==1.6.1
autopep8==1.3.4
decorator==4.2.1
flake8==3.5.0
importmagic==0.1.7
ipdb==0.11
ipython==6.2.1
ipython-genutils==0.2.0
isort==4.3.4
jedi==0.11.1
Jinja2==2.10
lazy-object-proxy==1.3.1
MarkupSafe==1.0
mccabe==0.6.1
parso==0.1.1
pbr==3.1.1
pexpect==4.4.0
pickleshare==0.7.4
prompt-toolkit==1.0.15
ptyprocess==0.5.2
pycodestyle==2.3.1
pyflakes==1.6.0
Pygments==2.2.0
pylint==1.8.2
simplegeneric==0.8.1
six==1.11.0
stevedore==1.28.0
traitlets==4.3.2
virtualenv==15.1.0
virtualenv-clone==0.2.6
virtualenvwrapper==4.8.2
wcwidth==0.1.7
wrapt==1.10.11
yapf==0.20.2
